<?xml version="1.0" encoding="utf-8"?>
<!-- Generator: Adobe Illustrator 21.1.0, SVG Export Plug-In . SVG Version: 6.00 Build 0)  -->
<svg version="1.1" id="Capa_1" xmlns="http://www.w3.org/2000/svg" xmlns:xlink="http://www.w3.org/1999/xlink" x="0px" y="0px"
	 viewBox="0 0 178.7 243.8" style="enable-background:new 0 0 178.7 243.8;" xml:space="preserve">
<style type="text/css">
	.st0{fill:#FFFFFF;}
	.st1{fill:#EB6181;}
	.st2{fill:#4B5BA4;}
</style>
<g>
	<path class="st0" d="M90,232.4L90,232.4c-41.4,0-74.9-33.5-74.9-74.9l0-67l149.8,0l0,67C164.9,198.8,131.3,232.4,90,232.4z"/>
	<path class="st1" d="M166.1,91.4c-4-10.8-11.5-19.8-20.9-26.4c-16.3-11.5-36-16.4-55.6-17.5C70.4,46.4,47.8,48.1,33.9,63
		c-0.8,0.8-1.5,1.7-2.2,2.5c0,0-0.1,0.1-0.1,0.1c-10.8,13.1-16,30.3-20.1,46.4c-1.3,5.1-2.7,10.5-4.4,15.8c3.3,2.1,6.9,3.9,10.6,5.3
		c0,0,73.6,1.8,83.1-31c0.5,0,1.1,0,1.7,0.1c11.4,1.3,17.6,13.3,26.9,18.8c10.7,6.3,22.9,10.4,35.5,12.7c4.3-1.9,8.4-4.3,12.2-6.8
		c0.6-0.4,1.2-0.8,1.8-1.2C172.5,115,170.4,102.9,166.1,91.4z"/>
	<path class="st1" d="M56.6,12.7c-5.9,4-8.9,10.1-11.2,17c-3.2,9.6-5.1,19.5-6.6,29.5c-0.1,0.7-0.1,1.7-0.2,2.6
		c1.4-0.3,3.1-0.6,3.4-0.6c4.6-1.2,9.2-2.5,13.8-3.6c9.5-2.3,19.3-4.1,29.2-3.7c10.4,0.4,21,1.6,31.4,3.1c5.5,0.8,11.1,1.7,16.5,3.3
		c1.8,0.5,3.5,1.2,5.2,1.9c-0.5-0.7-0.8-1.5-0.9-2.4c-0.8-6.1-2.8-11.9-4.2-17.8c-1.1-4.9-1.5-10-3.2-14.8
		c-2.8-8.1-12.1-10.6-19.6-12.6c-4.7-1.2-9.7-2.8-14.9-4.1c-1.9-0.2-3.8-0.3-5.8-0.4C78.9,9.5,67.3,9.8,56.6,12.7z"/>
	<g>
		<path class="st2" d="M143.9,58.2c1.2-14.9-3.6-29.2-13.5-40.2C120.1,6.6,105.3,0,89.9,0c-30.3,0-55,24.7-55,55v3.1
			C12.4,73.9,0,99.4,0,130.3c0,31.9,12.7,64.8,34.9,87.9c11.5,12,26.5,21.1,42.9,24.4c34.2,6.9,64.9-17,81.7-44.7
			c12.3-20.2,19.2-43.9,19.2-67.6C178.7,99.5,166.3,74,143.9,58.2z M89.9,16.1c19.3,0,35.6,14.6,38.1,33.4
			c-12.2-4.9-25.1-7.4-38.7-7.4c-13.6,0-26.4,2.5-38,7.3C54.3,30.4,70.5,16.1,89.9,16.1z M89.9,58.1c36.2,0,72.7,22,73.3,71
			c-23.5-3.5-34.3-18.6-49-42.7l-0.1-0.1c-1.7-2.5-4.2-3.9-7.1-3.9c-2.9,0-5.4,1.4-7.1,3.9l-0.1,0.1c-10.7,17.8-43.5,38.5-83.8,42.8
			C17.2,80.1,53.8,58.1,89.9,58.1z M89.8,227.3c-17.6,0.2-35-9.4-48.9-27.1c-11.9-15.2-20.6-35.5-23.5-55
			c29-3.1,67.8-16.8,89.2-40.6c14.8,23.2,29.2,37.3,55.6,40.1C156.3,185.1,126.4,227.3,89.8,227.3z"/>
		<path class="st2" d="M118.1,161.5h11.6c4.7,0,8-3.3,8-8s-3.3-8-8-8h-11.6c-4.7,0-8,3.3-8,8C110.1,158.4,114.2,161.5,118.1,161.5z"
			/>
		<path class="st2" d="M50.1,161.5h11.6c4.1,0,8-3.9,8-8c0-4.7-3.3-8-8-8H50.1c-4.7,0-8,3.3-8,8S45.3,161.5,50.1,161.5z"/>
		<path class="st2" d="M64.9,203.4L64.9,203.4c6.5,6.5,15.4,10.1,25,10.1c9.6,0,18.5-3.6,25-10.1c3.2-3.2,3.2-8.1,0-11.3
			c-3.2-3.2-8.1-3.2-11.3,0c-3.5,3.5-8.3,5.4-13.7,5.4c-5.3,0-9.7-1.9-13.7-5.9c-3.2-3.2-8.1-3.2-11.3,0
			C61.7,194.7,61.7,200.2,64.9,203.4z"/>
	</g>
</g>
</svg>
