<?xml version="1.0" encoding="utf-8"?>
<!-- Generator: Adobe Illustrator 23.0.1, SVG Export Plug-In . SVG Version: 6.00 Build 0)  -->
<svg version="1.1" id="Layer_1" xmlns="http://www.w3.org/2000/svg" xmlns:xlink="http://www.w3.org/1999/xlink" x="0px" y="0px"
	 viewBox="0 0 30 28.8" style="enable-background:new 0 0 30 28.8;" xml:space="preserve">
<style type="text/css">
	.st0{fill:#FFFFFF;}
</style>
<path class="st0" d="M29.1,13.3l-6.6,4.8l2.5,7.7c0.3,0.9,0,1.9-0.8,2.5c-0.4,0.3-0.9,0.4-1.3,0.4c-0.5,0-0.9-0.1-1.3-0.4L15,23.5
	l-6.6,4.8c-0.8,0.6-1.8,0.6-2.6,0C5,27.8,4.7,26.7,5,25.8l2.5-7.7l-6.6-4.8c-0.8-0.6-1.1-1.6-0.8-2.5s1.2-1.5,2.1-1.5h8.1l2.5-7.7
	C13.2,0.6,14,0,15,0s1.8,0.6,2.1,1.5l2.5,7.7h8.1c1,0,1.8,0.6,2.1,1.5C30.2,11.7,29.9,12.7,29.1,13.3z"/>
</svg>
