<?xml version="1.0" encoding="utf-8"?>
<!-- Generator: Adobe Illustrator 23.0.3, SVG Export Plug-In . SVG Version: 6.00 Build 0)  -->
<svg version="1.1" id="Layer_1" xmlns="http://www.w3.org/2000/svg" xmlns:xlink="http://www.w3.org/1999/xlink" x="0px" y="0px"
	 viewBox="0 0 125.3 126.3" style="enable-background:new 0 0 125.3 126.3;" xml:space="preserve">
<g>
	<path d="M125.3,56.1c0-1.4-0.7-2.8-1.9-3.6l-20-14.9v-33c0-2.5-2.1-4.6-4.6-4.6H26.5c-2.5,0-4.6,2.1-4.6,4.6v33l-20,14.9
		C0.7,53.4,0,54.7,0,56.2v65.5c0,2.5,2.1,4.6,4.6,4.6h116.1c2.5,0,4.6-2.1,4.6-4.6L125.3,56.1L125.3,56.1z M103.4,49.1l9.6,7.1
		l-9.6,7.2V49.1z M31.1,9.2h63v61L62.6,93.8c-0.8-0.6-2.5-1.9-5.6-4.2L31.1,70.3V9.2z M21.9,49.1v14.3l-9.6-7.2L21.9,49.1z
		 M116.1,117.1H9.2V65.4l34.9,26l-12.3,9.2c-3.5,2.7-1.7,8.3,2.8,8.3h0c1,0,2-0.3,2.8-0.9l14.5-10.9l8.1,6c1.6,1.2,3.9,1.2,5.5,0
		l8.1-6L88,108c0.8,0.6,1.8,0.9,2.8,0.9h0c4.4,0,6.3-5.6,2.8-8.3l-12.3-9.2l34.9-26V117.1z"/>
	<path d="M86.2,44.2c-0.8-0.9-1.9-1.4-3.1-1.4c-2.2,0-4,1.6-4.2,3.8c-0.1,1.3-0.4,2.6-0.7,3.9c-1.3,4.8-4,8.9-8,12.2
		c-3.3,2.7-7.1,4.5-11.4,5.2V49.4l16.5-6c0.5-0.1,0.9-0.5,0.9-1.3v-7.7L68,37.6l-9.2,3.2v-3.4L76.2,31v-8.6l-17.4,6.4V18.2
		c0-2.3-1.9-4.2-4.2-4.2c-2.3,0-4.2,1.9-4.2,4.2l0,13.6l-12.1,4.3v8.4l1.2-0.2c0.3-0.1,0.6-0.1,1-0.3l6.9-2.5c0.3-0.1,0.7-0.2,2-0.7
		c0.4-0.1,0.7-0.3,1-0.4v3.4l-12.1,4.4v8.6l12.1-4.3v23.8l0.9,0.1c1.2,0.1,2.3,0.2,3.5,0.2c3.9,0,7.7-0.7,11.3-2.1
		c3.7-1.4,7-3.4,9.9-6c3.2-2.7,5.7-5.9,7.5-9.5c2-3.6,3.2-7.5,3.7-11.5C87.4,46.3,87,45.1,86.2,44.2z"/>
</g>
</svg>
