<?xml version="1.0" encoding="utf-8"?>
<!-- Generator: Adobe Illustrator 22.0.1, SVG Export Plug-In . SVG Version: 6.00 Build 0)  -->
<svg version="1.1" id="Layer_1" xmlns="http://www.w3.org/2000/svg" xmlns:xlink="http://www.w3.org/1999/xlink" x="0px" y="0px"
	 viewBox="0 0 100 100" style="enable-background:new 0 0 100 100;" xml:space="preserve">
<g>
	<path d="M49,8.8c-17.7,0.3-33.2,6.4-46.2,18c-0.7,0.6-1.2,1.2-1.8,1.8c-1.2,1.5-1.4,2.8-0.7,4.2c0.7,1.4,1.9,2.2,3.7,2.3
		c2.3,0.1,4.3-0.7,6.7-2.7c11.2-9.8,24.9-14.7,38.7-14.7c14.5,0,28.9,5.4,40.3,16.2c0.7,0.7,1.6,1.4,2.4,1.9
		c2.7,1.7,5.7,1.6,7.2-0.3c1.4-1.8,0.8-4.5-1.6-6.8C84.4,15.6,68.4,9.1,49,8.8z"/>
	<path d="M84.2,44.9c-10.5-8.7-21.6-13-33.8-13.3c-12.1,0.2-23.2,4.9-33.1,14c-1.1,1-1.9,2.2-2.3,3.6c-0.3,1.2-0.2,2.3,0.4,3.2
		c0.6,0.9,1.6,1.4,2.8,1.5c2,0.2,3.7-0.5,5.6-2.1c0.3-0.3,0.7-0.6,1-0.9c0.9-0.8,1.8-1.6,2.7-2.3c14.6-11.2,35.3-10.3,49.1,2.1
		c1.5,1.3,3.1,2.7,5.1,3.1c1.9,0.4,3.4,0.1,4.4-1.1c1-1.1,1.1-2.4,0.4-4.3C86,46.8,85.2,45.7,84.2,44.9z"/>
	<path d="M52.9,55.3C52.9,55.3,52.9,55.3,52.9,55.3c-8.9,0-15.5,2-20.8,6.3c-1.3,1.1-2.2,2-2.7,3.1c-1.1,2-0.7,4.2,0.9,5.5
		c1.4,1.1,2.4,1.3,4.8-0.7c9.8-8.2,22.6-8,31.7,0.5c1.3,1.2,2.6,1,3.3,0.8c1.2-0.3,2.1-1.3,2.4-2.6c0.5-1.8-0.1-3.4-1.9-5.3
		C66,58.2,59.5,55.4,52.9,55.3z"/>
	<path d="M45.5,89c1.4,1.4,3.2,2.2,5.3,2.2c0,0,0,0,0,0c2,0,3.8-0.8,5.2-2.1c1.4-1.4,2.1-3.2,2.1-5.1v0c0-4.2-3.1-7.6-7.1-7.7
		c-0.1,0-0.1,0-0.2,0c-1.9,0-3.7,0.7-5.1,2c-1.5,1.4-2.3,3.4-2.3,5.5C43.4,85.8,44.2,87.6,45.5,89z"/>
</g>
</svg>
